attrs==21.2.0
certifi==2021.5.30
charset-normalizer==2.0.6
idna==3.2
iniconfig==1.1.1
joblib==1.0.1
numpy==1.21.2
packaging==21.0
pluggy==1.0.0
py==1.10.0
pyparsing==2.4.7
pytest==6.2.5
python-dateutil==2.8.2
requests==2.26.0
scikit-learn==0.24.2
scipy==1.7.1
six==1.16.0
sklearn==0.0
threadpoolctl==2.2.0
toml==0.10.2
urllib3==1.26.7
